[gd_resource type="SpriteFrames" load_steps=1 format=2]

[ext_resource path="res://textures/protagonist/run/1.png" type="Texture" id=1]
[ext_resource path="res://textures/protagonist/run/2.png" type="Texture" id=2]
[ext_resource path="res://textures/protagonist/run/3.png" type="Texture" id=3]
[ext_resource path="res://textures/protagonist/run/4.png" type="Texture" id=4]
[ext_resource path="res://textures/protagonist/run/5.png" type="Texture" id=5]
[ext_resource path="res://textures/protagonist/run/6.png" type="Texture" id=6]
[ext_resource path="res://textures/protagonist/run/7.png" type="Texture" id=7]
[ext_resource path="res://textures/protagonist/run/8.png" type="Texture" id=8]

[resource]

animations = [ {
"frames": [ ExtResource( 1 ), ExtResource( 2 ), ExtResource( 3 ), ExtResource( 4 ), ExtResource( 5 ), ExtResource( 6 ), ExtResource( 7 ), ExtResource( 8 ) ],
"loop": true,
"name": "default",
"speed": 8.0
} ]
