[gd_resource type="SpriteFrames" load_steps=1 format=2]

[ext_resource path="res://textures/monsters/goblin/idle-anim/1.png" type="Texture" id=1]

[resource]

animations = [ {
"frames": [ ExtResource( 1 ) ],
"loop": true,
"name": "default",
"speed": 5.0
} ]
