[gd_scene load_steps=4 format=2]

[ext_resource path="res://scripts/spike.gd" type="Script" id=1]
[ext_resource path="res://scenes/hazards/spike/geode-spikes.png" type="Texture" id=2]

[sub_resource type="RectangleShape2D" id=1]

custom_solver_bias = 0.0
extents = Vector2( 9, 11 )

[node name="Spike" type="KinematicBody2D" groups=[
"Hazards",
]]

input_pickable = false
shapes/0/shape = SubResource( 1 )
shapes/0/transform = Transform2D( 1, 0, 0, 1, 1, 5 )
shapes/0/trigger = false
collision_layer = 1
collision_mask = 1
collision/margin = 0.08
script = ExtResource( 1 )

[node name="Sprite" type="Sprite" parent="."]

texture = ExtResource( 2 )

[node name="CollisionShape2D" type="CollisionShape2D" parent="."]

position = Vector2( 1, 5 )
shape = SubResource( 1 )
trigger = false
_update_shape_index = 0
